<?xml version="1.0" encoding="UTF-8" standalone="no"?>
<!-- Created with Inkscape (http://www.inkscape.org/) -->

<svg
   xmlns:osb="http://www.openswatchbook.org/uri/2009/osb"
   xmlns:dc="http://purl.org/dc/elements/1.1/"
   xmlns:cc="http://creativecommons.org/ns#"
   xmlns:rdf="http://www.w3.org/1999/02/22-rdf-syntax-ns#"
   xmlns:svg="http://www.w3.org/2000/svg"
   xmlns="http://www.w3.org/2000/svg"
   xmlns:xlink="http://www.w3.org/1999/xlink"
   xmlns:sodipodi="http://sodipodi.sourceforge.net/DTD/sodipodi-0.dtd"
   xmlns:inkscape="http://www.inkscape.org/namespaces/inkscape"
   width="24.028193"
   height="24.032194"
   id="svg3915"
   version="1.1"
   inkscape:version="0.48.2 r9819"
   sodipodi:docname="pointer-invert-selection.svg">
  <defs
     id="defs3917">
    <linearGradient
       id="linearGradient6000">
      <stop
         style="stop-color:#3c5a6e;stop-opacity:1;"
         offset="0"
         id="stop6002" />
      <stop
         id="stop6016"
         offset="0.5"
         style="stop-color:#3c5a6e;stop-opacity:0.49803922;" />
      <stop
         style="stop-color:#3c5a6e;stop-opacity:0;"
         offset="1"
         id="stop6004" />
    </linearGradient>
    <linearGradient
       id="linearGradient5990"
       osb:paint="solid">
      <stop
         style="stop-color:#3c5a6e;stop-opacity:1;"
         offset="0"
         id="stop5992" />
    </linearGradient>
    <linearGradient
       xlink:href="#linearGradient2888"
       gradientUnits="userSpaceOnUse"
       y2="146.119"
       x2="172.70799"
       y1="167.853"
       x1="182.981"
       id="linearGradient5536"
       inkscape:collect="always" />
    <linearGradient
       id="linearGradient2888">
      <stop
         id="stop2889"
         offset="0.0000000"
         style="stop-color:#ffffff;stop-opacity:1.0000000;" />
      <stop
         id="stop2894"
         offset="1"
         style="stop-color:#8ab3de;stop-opacity:1;" />
    </linearGradient>
    <linearGradient
       xlink:href="#linearGradient2888"
       y2="41.695"
       x2="-21.25"
       y1="34.121754"
       x1="-26.252876"
       gradientTransform="translate(200,120)"
       gradientUnits="userSpaceOnUse"
       id="linearGradient5524"
       inkscape:collect="always" />
    <linearGradient
       id="linearGradient5967">
      <stop
         id="stop5969"
         offset="0.0000000"
         style="stop-color:#ffffff;stop-opacity:1.0000000;" />
      <stop
         id="stop5971"
         offset="1"
         style="stop-color:#8ab3de;stop-opacity:1;" />
    </linearGradient>
    <linearGradient
       xlink:href="#linearGradient800"
       y2="120.57917"
       x2="98.377357"
       y1="120.625"
       x1="95.237885"
       gradientTransform="matrix(0.833333,0,0,1,7.291667,1.125)"
       gradientUnits="userSpaceOnUse"
       id="linearGradient4723"
       inkscape:collect="always" />
    <linearGradient
       id="linearGradient800">
      <stop
         id="stop998"
         offset="0"
         style="stop-color:#f3ff49;stop-opacity:1;" />
      <stop
         id="stop999"
         offset="1"
         style="stop-color:#ffa01e;stop-opacity:1;" />
    </linearGradient>
    <linearGradient
       xlink:href="#linearGradient800"
       gradientUnits="userSpaceOnUse"
       y2="118.8367"
       x2="89.002983"
       y1="120.64272"
       x1="85.865807"
       id="linearGradient5492"
       inkscape:collect="always" />
    <linearGradient
       id="linearGradient5978">
      <stop
         id="stop5980"
         offset="0"
         style="stop-color:#f3ff49;stop-opacity:1;" />
      <stop
         id="stop5982"
         offset="1"
         style="stop-color:#ffa01e;stop-opacity:1;" />
    </linearGradient>
    <linearGradient
       xlink:href="#linearGradient5858"
       y2="120.82606"
       x2="73.446037"
       y1="122.50062"
       x1="64.943275"
       gradientTransform="matrix(0.845944,0,0,1,30.563,-0.625005)"
       gradientUnits="userSpaceOnUse"
       id="linearGradient4728"
       inkscape:collect="always" />
    <linearGradient
       id="linearGradient5858">
      <stop
         style="stop-color:#ffa01e"
         offset="0.0000000"
         id="stop5860" />
      <stop
         style="stop-color:#000000;stop-opacity:1.0000000;"
         offset="1.0000000"
         id="stop5862" />
    </linearGradient>
    <linearGradient
       xlink:href="#linearGradient2485"
       gradientUnits="userSpaceOnUse"
       y2="125.95964"
       x2="89.703491"
       y1="125.87318"
       x1="85.640419"
       id="linearGradient5476"
       inkscape:collect="always" />
    <linearGradient
       id="linearGradient2485">
      <stop
         id="stop2486"
         offset="0.0000000"
         style="stop-color:#ffffff;stop-opacity:1.0000000" />
      <stop
         id="stop2487"
         offset="1.0000000"
         style="stop-color:#aaaaaa;stop-opacity:1.0000000;" />
    </linearGradient>
    <linearGradient
       xlink:href="#linearGradient3480"
       y2="128.70482"
       x2="70.212822"
       y1="132.3595"
       x1="66.82119"
       gradientTransform="matrix(0.845944,0,0,1,30.52281,-4.619314)"
       gradientUnits="userSpaceOnUse"
       id="linearGradient4726"
       inkscape:collect="always" />
    <linearGradient
       id="linearGradient3480">
      <stop
         id="stop3482"
         offset="0.0000000"
         style="stop-color:#646464;stop-opacity:1.0000000;" />
      <stop
         id="stop3484"
         offset="1.0000000"
         style="stop-color:#000000;stop-opacity:1.0000000;" />
    </linearGradient>
    <linearGradient
       id="linearGradient2888-1">
      <stop
         id="stop2889-7"
         offset="0.0000000"
         style="stop-color:#ffffff;stop-opacity:1.0000000;" />
      <stop
         id="stop2894-4"
         offset="1"
         style="stop-color:#8ab3de;stop-opacity:1;" />
    </linearGradient>
    <linearGradient
       xlink:href="#linearGradient3480-0"
       gradientTransform="translate(0,0.0207681)"
       gradientUnits="userSpaceOnUse"
       y2="257.66202"
       x2="14.320742"
       y1="251"
       x1="8"
       id="linearGradient4088"
       inkscape:collect="always" />
    <linearGradient
       id="linearGradient3480-0">
      <stop
         id="stop3482-9"
         offset="0.0000000"
         style="stop-color:#646464;stop-opacity:1.0000000;" />
      <stop
         id="stop3484-4"
         offset="1.0000000"
         style="stop-color:#000000;stop-opacity:1.0000000;" />
    </linearGradient>
    <radialGradient
       inkscape:collect="always"
       xlink:href="#XMLID_21_"
       id="radialGradient3017"
       gradientUnits="userSpaceOnUse"
       gradientTransform="matrix(1.278777,0,0,1.278777,-41.22182,13.46488)"
       spreadMethod="pad"
       cx="66.7061"
       cy="22.9419"
       fx="66.7061"
       fy="22.9419"
       r="59.340599" />
    <radialGradient
       spreadMethod="pad"
       gradientUnits="userSpaceOnUse"
       id="XMLID_21_"
       r="59.340599"
       fy="22.9419"
       fx="66.7061"
       cy="22.9419"
       cx="66.7061"
       gradientTransform="matrix(1.278777,0,0,1.278777,-41.22182,13.46488)">
      <stop
         id="stop721"
         offset="0.00000000"
         style="stop-color:#0066cc;stop-opacity:1;" />
      <stop
         id="stop722"
         offset="1.00000000"
         style="stop-color:#003399;stop-opacity:1;" />
      <midPointStop
         id="midPointStop139"
         style="stop-color:#0066CC"
         offset="0" />
      <midPointStop
         id="midPointStop141"
         style="stop-color:#0066CC"
         offset="0.5" />
      <midPointStop
         id="midPointStop143"
         style="stop-color:#003399"
         offset="1" />
    </radialGradient>
    <linearGradient
       spreadMethod="pad"
       gradientUnits="userSpaceOnUse"
       id="XMLID_22_"
       y2="44.681999"
       x2="85.759804"
       y1="12.79"
       x1="85.759804"
       gradientTransform="matrix(1.278777,0,0,1.278777,-41.22182,13.46488)">
      <stop
         id="stop729"
         offset="0.00000000"
         style="stop-color:#ffffff;stop-opacity:1;" />
      <stop
         id="stop730"
         offset="1.00000000"
         style="stop-color:#0d3692;stop-opacity:1;" />
      <midPointStop
         id="midPointStop731"
         style="stop-color:#FFFFFF"
         offset="0" />
      <midPointStop
         id="midPointStop732"
         style="stop-color:#FFFFFF"
         offset="0.5" />
      <midPointStop
         id="midPointStop733"
         style="stop-color:#0D3692"
         offset="1" />
    </linearGradient>
  </defs>
  <sodipodi:namedview
     id="base"
     pagecolor="#ffffff"
     bordercolor="#666666"
     borderopacity="1.0"
     inkscape:pageopacity="0.0"
     inkscape:pageshadow="2"
     inkscape:zoom="16.097667"
     inkscape:cx="13.09755"
     inkscape:cy="9.3553928"
     inkscape:document-units="px"
     inkscape:current-layer="pointer"
     showgrid="false"
     fit-margin-top="0"
     fit-margin-left="0"
     fit-margin-right="0"
     fit-margin-bottom="0"
     inkscape:window-width="1280"
     inkscape:window-height="972"
     inkscape:window-x="1358"
     inkscape:window-y="-8"
     inkscape:window-maximized="1"
     showguides="true"
     inkscape:guide-bbox="true" />
  <metadata
     id="metadata3920">
    <rdf:RDF>
      <cc:Work
         rdf:about="">
        <dc:format>image/svg+xml</dc:format>
        <dc:type
           rdf:resource="http://purl.org/dc/dcmitype/StillImage" />
        <dc:title />
        <dc:creator>
          <cc:Agent>
            <dc:title />
          </cc:Agent>
        </dc:creator>
        <dc:subject>
          <rdf:Bag />
        </dc:subject>
      </cc:Work>
    </rdf:RDF>
  </metadata>
  <g
     inkscape:label="Layer 1"
     inkscape:groupmode="layer"
     id="layer1"
     transform="translate(-468.69227,-698.37228)">
    <g
       id="zoom-in"
       transform="matrix(-1,0,0,0.997925,495.36931,454.32368)"
       inkscape:label="#zoom_in">
      <g
         id="pointer"
         transform="matrix(-1,0,0,1.0020793,-84.752018,109.27051)"
         inkscape:label="#pointer">
        <rect
           style="fill:#3465a4;fill-opacity:1;stroke:none"
           id="rect3040"
           width="24.105591"
           height="23.98135"
           x="-111.4918"
           y="135.07686" />
        <g
           id="tool-pointer"
           transform="matrix(0.84032393,0,0,0.84032393,-15.794567,23.646208)"
           inkscape:label="#pointer"
           style="fill:#ffffff;stroke:#ffffff">
          <path
             inkscape:connector-curvature="0"
             sodipodi:nodetypes="ssssssss"
             id="path730"
             d="m -103.70564,154.97308 -0.0575,-18.2662 12.040141,12.8752 -5.398815,-0.0773 3.622235,5.63616 -4.47307,2.1183 -2.038591,-6.51575 z"
             style="font-size:12px;fill:#ffffff;fill-rule:evenodd;stroke:#ffffff;stroke-width:1;stroke-linejoin:round;stroke-miterlimit:4;stroke-dasharray:none" />
        </g>
      </g>
    </g>
  </g>
</svg>
